%YAML 1.1
%TAG !u! tag:unity3d.com,2011:
--- !u!687078895 &4343727234628468602
SpriteAtlas:
  m_ObjectHideFlags: 0
  m_CorrespondingSourceObject: {fileID: 0}
  m_PrefabInstance: {fileID: 0}
  m_PrefabAsset: {fileID: 0}
  m_Name: UI_game
  m_EditorData:
    serializedVersion: 2
    textureSettings:
      serializedVersion: 2
      anisoLevel: 1
      compressionQuality: 50
      maxTextureSize: 2048
      textureCompression: 0
      filterMode: 1
      generateMipMaps: 0
      readable: 0
      crunchedCompression: 0
      sRGB: 1
    platformSettings: []
    packingSettings:
      serializedVersion: 2
      padding: 4
      blockOffset: 1
      allowAlphaSplitting: 0
      enableRotation: 0
      enableTightPacking: 0
    variantMultiplier: 1
    packables:
    - {fileID: 102900000, guid: 27d4faf4110c74bdaba42b3dddffa91e, type: 3}
    - {fileID: 102900000, guid: 311dd34262920478fa2da379da78c77e, type: 3}
    - {fileID: 102900000, guid: 57d2c145863274ec39869152e6c500eb, type: 3}
    bindAsDefault: 1
  m_MasterAtlas: {fileID: 0}
  m_PackedSprites:
  - {fileID: 21300000, guid: d3e68230b19a446a9b12faf8ef5d3430, type: 3}
  - {fileID: 21300000, guid: 8bb4aad0f3633495082c2389b2cfa353, type: 3}
  - {fileID: 21300000, guid: 039439a375a4c4910b373b4e74e9d5f7, type: 3}
  - {fileID: 21300000, guid: ee58c03534f644403957d5426ce3dc32, type: 3}
  - {fileID: 21300000, guid: 2cbe9c85e1ce348c395e00b25aaa3d0a, type: 3}
  - {fileID: 21300000, guid: 44264128616bd420ea006dedcd4c5962, type: 3}
  - {fileID: 21300000, guid: 300498abefa0d487aa9a16b3203fe590, type: 3}
  - {fileID: 21300000, guid: b58647cf6c2cd417abdbca74833e870f, type: 3}
  m_PackedSpriteNamesToIndex:
  - Block_B
  - img_ground
  - Circle_LineGauge
  - Block_G
  - Block_R
  - Btn_Atk_R
  - Circle
  - FX_trail_R
  m_Tag: UI_game
  m_IsVariant: 0
